{
  "name": "case",
  "base": "PersistedModel",
  "idInjection": true,
  "options": {
    "validateUpsert": true
  },
  "properties": {
    "ServiceGlobalAccountName": {
      "type": "string"
    },
    "ServiceGlobalAccountID": {
      "type": "string"
    },
    "ServiceGlobalProgramReferenceCode": {
      "type": "string"
    },
    "PartnerCaseNumber": {
      "type": "string"
    },
    "CaseSummary": {
      "type": "string"
    },
    "CaseDescription": {
      "type": "string"
    },
    "DispatchPrivateInstructions": {
      "type": "string"
    },
    "Program": {
      "type": "string"
    },
    "ProgramID": {
      "type": "string"
    },
    "JobsiteLocationName": {
      "type": "string"
    },
    "JobsiteLocationNameID": {
      "type": "string"
    },
    "JSShipToName": {
      "type": "string"
    },
    "JSShipToEmail": {
      "type": "string"
    },
    "JSShipToPhone": {
      "type": "string"
    },
    "ServiceType": {
      "type": "string"
    },
    "TalentType": {
      "type": "string"
    },
    "TechnicalLevel": {
      "type": "string"
    },
    "EventDuration": {
      "type": "string"
    },
    "SLAPriority": {
      "type": "string"
    },
    "CustAppSetupRequest": {
      "type": "boolean"
    },
    "DispatchNow": {
      "type": "boolean"
    },
    "PreScheduled": {
      "type": "boolean"
    },
    "PreScheduleDate": {
      "type": "date"
    },
    "PreScheduleHour": {
      "type": "string"
    },
    "PreScheduleMinute": {
      "type": "string"
    }
  },
  "validations": [],
  "relations": {},
  "acls": [],
  "methods": {}
}
