{
  "name": "jobsiteProject",
  "base": "PersistedModel",
  "idInjection": true,
  "options": {
    "validateUpsert": true
  },
  "properties": {
    "jobsiteProjectId": {
      "type": "string"
    },
    "jobsiteId": {
      "type": "string"
    },
    "jobsiteName": {
      "type": "string"
    },
    "ProjectId": {
      "type": "string"
    }
  },
  "validations": [],
  "relations": {},
  "acls": [],
  "methods": {}
}
